^C:\USERS\DARKING618\SOURCE\REPOS\BASPROG2 FINALS VELASCIO RESUBMISSION\BASPROG2 FINALS VELASCIO RESUBMISSION\POKEMON.CPP|C:\USERS\DARKING618\SOURCE\REPOS\BASPROG2 FINALS VELASCIO RESUBMISSION\BASPROG2 FINALS VELASCIO RESUBMISSION\SOURCE.CPP|C:\USERS\DARKING618\SOURCE\REPOS\BASPROG2 FINALS VELASCIO RESUBMISSION\BASPROG2 FINALS VELASCIO RESUBMISSION\TRAINER.CPP
C:\USERS\DARKING618\SOURCE\REPOS\BASPROG2 FINALS VELASCIO RESUBMISSION\BASPROG2 FINALS VELASCIO RESUBMISSION\DEBUG\VC141.PDB
C:\USERS\DARKING618\SOURCE\REPOS\BASPROG2 FINALS VELASCIO RESUBMISSION\BASPROG2 FINALS VELASCIO RESUBMISSION\DEBUG\VC141.IDB
C:\USERS\DARKING618\SOURCE\REPOS\BASPROG2 FINALS VELASCIO RESUBMISSION\BASPROG2 FINALS VELASCIO RESUBMISSION\DEBUG\TRAINER.OBJ
C:\USERS\DARKING618\SOURCE\REPOS\BASPROG2 FINALS VELASCIO RESUBMISSION\BASPROG2 FINALS VELASCIO RESUBMISSION\DEBUG\SOURCE.OBJ
C:\USERS\DARKING618\SOURCE\REPOS\BASPROG2 FINALS VELASCIO RESUBMISSION\BASPROG2 FINALS VELASCIO RESUBMISSION\DEBUG\POKEMON.OBJ
^C:\USERS\DARKING618\SOURCE\REPOS\BASPROG2 FINALS VELASCIO RESUBMISSION\BASPROG2 FINALS VELASCIO RESUBMISSION\LOCATION.CPP|C:\USERS\DARKING618\SOURCE\REPOS\BASPROG2 FINALS VELASCIO RESUBMISSION\BASPROG2 FINALS VELASCIO RESUBMISSION\MOVEMENT.CPP|C:\USERS\DARKING618\SOURCE\REPOS\BASPROG2 FINALS VELASCIO RESUBMISSION\BASPROG2 FINALS VELASCIO RESUBMISSION\SOURCE.CPP
C:\USERS\DARKING618\SOURCE\REPOS\BASPROG2 FINALS VELASCIO RESUBMISSION\BASPROG2 FINALS VELASCIO RESUBMISSION\DEBUG\VC141.PDB
C:\USERS\DARKING618\SOURCE\REPOS\BASPROG2 FINALS VELASCIO RESUBMISSION\BASPROG2 FINALS VELASCIO RESUBMISSION\DEBUG\VC141.IDB
C:\USERS\DARKING618\SOURCE\REPOS\BASPROG2 FINALS VELASCIO RESUBMISSION\BASPROG2 FINALS VELASCIO RESUBMISSION\DEBUG\SOURCE.OBJ
C:\USERS\DARKING618\SOURCE\REPOS\BASPROG2 FINALS VELASCIO RESUBMISSION\BASPROG2 FINALS VELASCIO RESUBMISSION\DEBUG\MOVEMENT.OBJ
^C:\USERS\DARKING618\SOURCE\REPOS\BASPROG2 FINALS VELASCIO RESUBMISSION\BASPROG2 FINALS VELASCIO RESUBMISSION\LOCATION.CPP|C:\USERS\DARKING618\SOURCE\REPOS\BASPROG2 FINALS VELASCIO RESUBMISSION\BASPROG2 FINALS VELASCIO RESUBMISSION\SOURCE.CPP
C:\USERS\DARKING618\SOURCE\REPOS\BASPROG2 FINALS VELASCIO RESUBMISSION\BASPROG2 FINALS VELASCIO RESUBMISSION\DEBUG\VC141.PDB
C:\USERS\DARKING618\SOURCE\REPOS\BASPROG2 FINALS VELASCIO RESUBMISSION\BASPROG2 FINALS VELASCIO RESUBMISSION\DEBUG\VC141.IDB
C:\USERS\DARKING618\SOURCE\REPOS\BASPROG2 FINALS VELASCIO RESUBMISSION\BASPROG2 FINALS VELASCIO RESUBMISSION\DEBUG\SOURCE.OBJ
C:\USERS\DARKING618\SOURCE\REPOS\BASPROG2 FINALS VELASCIO RESUBMISSION\BASPROG2 FINALS VELASCIO RESUBMISSION\DEBUG\LOCATION.OBJ
^C:\USERS\DARKING618\SOURCE\REPOS\BASPROG2 FINALS VELASCIO RESUBMISSION\BASPROG2 FINALS VELASCIO RESUBMISSION\LOCATION.CPP|C:\USERS\DARKING618\SOURCE\REPOS\BASPROG2 FINALS VELASCIO RESUBMISSION\BASPROG2 FINALS VELASCIO RESUBMISSION\MOVEMENT.CPP|C:\USERS\DARKING618\SOURCE\REPOS\BASPROG2 FINALS VELASCIO RESUBMISSION\BASPROG2 FINALS VELASCIO RESUBMISSION\POKEMON.CPP|C:\USERS\DARKING618\SOURCE\REPOS\BASPROG2 FINALS VELASCIO RESUBMISSION\BASPROG2 FINALS VELASCIO RESUBMISSION\SOURCE.CPP|C:\USERS\DARKING618\SOURCE\REPOS\BASPROG2 FINALS VELASCIO RESUBMISSION\BASPROG2 FINALS VELASCIO RESUBMISSION\TRAINER.CPP
C:\USERS\DARKING618\SOURCE\REPOS\BASPROG2 FINALS VELASCIO RESUBMISSION\BASPROG2 FINALS VELASCIO RESUBMISSION\DEBUG\VC141.PDB
C:\USERS\DARKING618\SOURCE\REPOS\BASPROG2 FINALS VELASCIO RESUBMISSION\BASPROG2 FINALS VELASCIO RESUBMISSION\DEBUG\VC141.IDB
C:\USERS\DARKING618\SOURCE\REPOS\BASPROG2 FINALS VELASCIO RESUBMISSION\BASPROG2 FINALS VELASCIO RESUBMISSION\DEBUG\TRAINER.OBJ
C:\USERS\DARKING618\SOURCE\REPOS\BASPROG2 FINALS VELASCIO RESUBMISSION\BASPROG2 FINALS VELASCIO RESUBMISSION\DEBUG\SOURCE.OBJ
C:\USERS\DARKING618\SOURCE\REPOS\BASPROG2 FINALS VELASCIO RESUBMISSION\BASPROG2 FINALS VELASCIO RESUBMISSION\DEBUG\POKEMON.OBJ
C:\USERS\DARKING618\SOURCE\REPOS\BASPROG2 FINALS VELASCIO RESUBMISSION\BASPROG2 FINALS VELASCIO RESUBMISSION\DEBUG\MOVEMENT.OBJ
^C:\USERS\DARKING618\SOURCE\REPOS\BASPROG2 FINALS VELASCIO RESUBMISSION\BASPROG2 FINALS VELASCIO RESUBMISSION\TRAINER.CPP
C:\USERS\DARKING618\SOURCE\REPOS\BASPROG2 FINALS VELASCIO RESUBMISSION\BASPROG2 FINALS VELASCIO RESUBMISSION\DEBUG\TRAINER.OBJ
^C:\USERS\DARKING618\SOURCE\REPOS\BASPROG2 FINALS VELASCIO RESUBMISSION\BASPROG2 FINALS VELASCIO RESUBMISSION\LOCATION.CPP|C:\USERS\DARKING618\SOURCE\REPOS\BASPROG2 FINALS VELASCIO RESUBMISSION\BASPROG2 FINALS VELASCIO RESUBMISSION\MOVEMENT.CPP|C:\USERS\DARKING618\SOURCE\REPOS\BASPROG2 FINALS VELASCIO RESUBMISSION\BASPROG2 FINALS VELASCIO RESUBMISSION\POKEMON.CPP|C:\USERS\DARKING618\SOURCE\REPOS\BASPROG2 FINALS VELASCIO RESUBMISSION\BASPROG2 FINALS VELASCIO RESUBMISSION\SOURCE.CPP
C:\USERS\DARKING618\SOURCE\REPOS\BASPROG2 FINALS VELASCIO RESUBMISSION\BASPROG2 FINALS VELASCIO RESUBMISSION\DEBUG\VC141.PDB
C:\USERS\DARKING618\SOURCE\REPOS\BASPROG2 FINALS VELASCIO RESUBMISSION\BASPROG2 FINALS VELASCIO RESUBMISSION\DEBUG\VC141.IDB
C:\USERS\DARKING618\SOURCE\REPOS\BASPROG2 FINALS VELASCIO RESUBMISSION\BASPROG2 FINALS VELASCIO RESUBMISSION\DEBUG\POKEMON.OBJ
C:\USERS\DARKING618\SOURCE\REPOS\BASPROG2 FINALS VELASCIO RESUBMISSION\BASPROG2 FINALS VELASCIO RESUBMISSION\DEBUG\MOVEMENT.OBJ
C:\USERS\DARKING618\SOURCE\REPOS\BASPROG2 FINALS VELASCIO RESUBMISSION\BASPROG2 FINALS VELASCIO RESUBMISSION\DEBUG\LOCATION.OBJ
^C:\USERS\DARKING618\SOURCE\REPOS\BASPROG2 FINALS VELASCIO RESUBMISSION\BASPROG2 FINALS VELASCIO RESUBMISSION\POKEMON.CPP|C:\USERS\DARKING618\SOURCE\REPOS\BASPROG2 FINALS VELASCIO RESUBMISSION\BASPROG2 FINALS VELASCIO RESUBMISSION\SOURCE.CPP
C:\USERS\DARKING618\SOURCE\REPOS\BASPROG2 FINALS VELASCIO RESUBMISSION\BASPROG2 FINALS VELASCIO RESUBMISSION\DEBUG\VC141.PDB
C:\USERS\DARKING618\SOURCE\REPOS\BASPROG2 FINALS VELASCIO RESUBMISSION\BASPROG2 FINALS VELASCIO RESUBMISSION\DEBUG\VC141.IDB
C:\USERS\DARKING618\SOURCE\REPOS\BASPROG2 FINALS VELASCIO RESUBMISSION\BASPROG2 FINALS VELASCIO RESUBMISSION\DEBUG\POKEMON.OBJ
^C:\USERS\DARKING618\SOURCE\REPOS\BASPROG2 FINALS VELASCIO RESUBMISSION\BASPROG2 FINALS VELASCIO RESUBMISSION\MOVEMENT.CPP|C:\USERS\DARKING618\SOURCE\REPOS\BASPROG2 FINALS VELASCIO RESUBMISSION\BASPROG2 FINALS VELASCIO RESUBMISSION\SOURCE.CPP
C:\USERS\DARKING618\SOURCE\REPOS\BASPROG2 FINALS VELASCIO RESUBMISSION\BASPROG2 FINALS VELASCIO RESUBMISSION\DEBUG\VC141.PDB
C:\USERS\DARKING618\SOURCE\REPOS\BASPROG2 FINALS VELASCIO RESUBMISSION\BASPROG2 FINALS VELASCIO RESUBMISSION\DEBUG\VC141.IDB
C:\USERS\DARKING618\SOURCE\REPOS\BASPROG2 FINALS VELASCIO RESUBMISSION\BASPROG2 FINALS VELASCIO RESUBMISSION\DEBUG\SOURCE.OBJ
C:\USERS\DARKING618\SOURCE\REPOS\BASPROG2 FINALS VELASCIO RESUBMISSION\BASPROG2 FINALS VELASCIO RESUBMISSION\DEBUG\MOVEMENT.OBJ
^C:\USERS\DARKING618\SOURCE\REPOS\BASPROG2 FINALS VELASCIO RESUBMISSION\BASPROG2 FINALS VELASCIO RESUBMISSION\MOVEMENT.CPP
C:\USERS\DARKING618\SOURCE\REPOS\BASPROG2 FINALS VELASCIO RESUBMISSION\BASPROG2 FINALS VELASCIO RESUBMISSION\DEBUG\VC141.PDB
^C:\USERS\DARKING618\SOURCE\REPOS\BASPROG2 FINALS VELASCIO RESUBMISSION\BASPROG2 FINALS VELASCIO RESUBMISSION\LOCATION.CPP|C:\USERS\DARKING618\SOURCE\REPOS\BASPROG2 FINALS VELASCIO RESUBMISSION\BASPROG2 FINALS VELASCIO RESUBMISSION\POKEMON.CPP|C:\USERS\DARKING618\SOURCE\REPOS\BASPROG2 FINALS VELASCIO RESUBMISSION\BASPROG2 FINALS VELASCIO RESUBMISSION\SOURCE.CPP
C:\USERS\DARKING618\SOURCE\REPOS\BASPROG2 FINALS VELASCIO RESUBMISSION\BASPROG2 FINALS VELASCIO RESUBMISSION\DEBUG\VC141.PDB
C:\USERS\DARKING618\SOURCE\REPOS\BASPROG2 FINALS VELASCIO RESUBMISSION\BASPROG2 FINALS VELASCIO RESUBMISSION\DEBUG\VC141.IDB
C:\USERS\DARKING618\SOURCE\REPOS\BASPROG2 FINALS VELASCIO RESUBMISSION\BASPROG2 FINALS VELASCIO RESUBMISSION\DEBUG\SOURCE.OBJ
C:\USERS\DARKING618\SOURCE\REPOS\BASPROG2 FINALS VELASCIO RESUBMISSION\BASPROG2 FINALS VELASCIO RESUBMISSION\DEBUG\POKEMON.OBJ
C:\USERS\DARKING618\SOURCE\REPOS\BASPROG2 FINALS VELASCIO RESUBMISSION\BASPROG2 FINALS VELASCIO RESUBMISSION\DEBUG\LOCATION.OBJ
^C:\USERS\DARKING618\SOURCE\REPOS\BASPROG2 FINALS VELASCIO RESUBMISSION\BASPROG2 FINALS VELASCIO RESUBMISSION\LOCATION.CPP
C:\USERS\DARKING618\SOURCE\REPOS\BASPROG2 FINALS VELASCIO RESUBMISSION\BASPROG2 FINALS VELASCIO RESUBMISSION\DEBUG\VC141.PDB
^C:\USERS\DARKING618\SOURCE\REPOS\BASPROG2 FINALS VELASCIO RESUBMISSION\BASPROG2 FINALS VELASCIO RESUBMISSION\POKEMON.CPP
C:\USERS\DARKING618\SOURCE\REPOS\BASPROG2 FINALS VELASCIO RESUBMISSION\BASPROG2 FINALS VELASCIO RESUBMISSION\DEBUG\VC141.PDB
C:\USERS\DARKING618\SOURCE\REPOS\BASPROG2 FINALS VELASCIO RESUBMISSION\BASPROG2 FINALS VELASCIO RESUBMISSION\DEBUG\VC141.IDB
C:\USERS\DARKING618\SOURCE\REPOS\BASPROG2 FINALS VELASCIO RESUBMISSION\BASPROG2 FINALS VELASCIO RESUBMISSION\DEBUG\POKEMON.OBJ
^C:\USERS\DARKING618\SOURCE\REPOS\BASPROG2 FINALS VELASCIO RESUBMISSION\BASPROG2 FINALS VELASCIO RESUBMISSION\SOURCE.CPP
C:\USERS\DARKING618\SOURCE\REPOS\BASPROG2 FINALS VELASCIO RESUBMISSION\BASPROG2 FINALS VELASCIO RESUBMISSION\DEBUG\VC141.PDB
C:\USERS\DARKING618\SOURCE\REPOS\BASPROG2 FINALS VELASCIO RESUBMISSION\BASPROG2 FINALS VELASCIO RESUBMISSION\DEBUG\VC141.IDB
C:\USERS\DARKING618\SOURCE\REPOS\BASPROG2 FINALS VELASCIO RESUBMISSION\BASPROG2 FINALS VELASCIO RESUBMISSION\DEBUG\SOURCE.OBJ
